Get posterior values — get_posterior • BayesianNetworks
…
dt <- prepare_data(mat = web, sampl.eff = rep(20, nrow(web)))
fit <- fit_model(dt, refresh = 0)
#> Running MCMC with 4 sequential chains...
#> 
#> Chain 1 finished in 1.3 seconds.
#> Chain 2 finished in 1.3 seconds.
#> Chain 3 finished in 1.4 seconds.
#> Chain 4 finished in 1.4 seconds.
#> 
#> All 4 chains finished successfully.
#> Mean chain execution time: 1.3 seconds.
#> Total execution time: 5.7 seconds.
#> 
get_posterior(fit, dt, param = "connectance")
#> # A tibble: 4,000 × 4
#>    .chain .iteration .draw connectance
#>     <int>      <int> <int>       <dbl>
#>  1      1          1     1       0.266
#>  2      1          2     2       0.223
#>  3      1          3     3       0.234
#>  4      1          4     4       0.191
#>  5      1          5     5       0.268
#>  6      1          6     6       0.312
#>  7      1          7     7       0.132
#>  8      1          8     8       0.247
#>  9      1          9     9       0.228
#> 10      1         10    10       0.285
#> # ℹ 3,990 more rows

int.prob <- get_posterior(fit, dt, param = "int.prob")
int.prob
#> # A tibble: 672,000 × 6
#> # Groups:   Plant, Animal [168]
#>    Plant Animal int.prob .chain .iteration .draw
#>    <chr> <chr>     <dbl>  <int>      <int> <int>
#>  1 P1    A1       0.234       1          1     1
#>  2 P1    A1       0.143       1          2     2
#>  3 P1    A1       0.213       1          3     3
#>  4 P1    A1       0.110       1          4     4
#>  5 P1    A1       0.235       1          5     5
#>  6 P1    A1       0.279       1          6     6
#>  7 P1    A1       0.0994      1          7     7
#>  8 P1    A1       0.207       1          8     8
#>  9 P1    A1       0.177       1          9     9
#> 10 P1    A1       0.215       1         10    10
#> # ℹ 671,990 more rows
int.prob |> tidybayes::mean_qi()  # mean edge probability
#> # A tibble: 168 × 8
#>    Plant Animal int.prob .lower .upper .width .point .interval
#>    <chr> <chr>     <dbl>  <dbl>  <dbl>  <dbl> <chr>  <chr>    
#>  1 P1    A1        0.188 0.0811  0.306   0.95 mean   qi       
#>  2 P1    A10       0.169 0.0624  0.284   0.95 mean   qi       
#>  3 P1    A11       0.187 0.0345  0.322   0.95 mean   qi       
#>  4 P1    A12       0.132 0.0262  0.256   0.95 mean   qi       
#>  5 P1    A13       0.181 0.0555  0.308   0.95 mean   qi       
#>  6 P1    A14       1.00  0.999   1.00    0.95 mean   qi       
#>  7 P1    A15       0.195 0.0290  0.324   0.95 mean   qi       
#>  8 P1    A16       0.186 0.0457  0.313   0.95 mean   qi       
#>  9 P1    A17       0.158 0.0480  0.277   0.95 mean   qi       
#> 10 P1    A18       0.183 0.0715  0.308   0.95 mean   qi       
#> # ℹ 158 more rows

# all posteriors
get_posterior(fit, dt, param = "all")
#> # A tibble: 672,000 × 11
#> # Groups:   Plant, Animal [168]
#>    Plant Animal .chain .iteration .draw connectance preference plant.abund
#>    <chr> <chr>   <int>      <int> <int>       <dbl>      <dbl>       <dbl>
#>  1 P1    A1          1          1     1       0.266       48.6      0.0141
#>  2 P1    A2          1          1     1       0.266       48.6      0.0141
#>  3 P1    A3          1          1     1       0.266       48.6      0.0141
#>  4 P1    A4          1          1     1       0.266       48.6      0.0141
#>  5 P1    A5          1          1     1       0.266       48.6      0.0141
#>  6 P1    A6          1          1     1       0.266       48.6      0.0141
#>  7 P1    A7          1          1     1       0.266       48.6      0.0141
#>  8 P1    A8          1          1     1       0.266       48.6      0.0141
#>  9 P1    A9          1          1     1       0.266       48.6      0.0141
#> 10 P1    A10         1          1     1       0.266       48.6      0.0141
#> # ℹ 671,990 more rows
#> # ℹ 3 more variables: animal.abund <dbl>, int.prob <dbl>, link <int>
…
